{
  "project_info": {
    "project_number": "433247901279",
    "firebase_url": "https://washapp-9450f.firebaseio.com",
    "project_id": "washapp-9450f",
    "storage_bucket": "washapp-9450f.appspot.com"
  },
  "client": [
    {
      "client_info": {
        "mobilesdk_app_id": "1:433247901279:android:02295d522c6120b67a6dea",
        "android_client_info": {
          "package_name": "com.ibox.washapp"
        }
      },
      "oauth_client": [
        {
          "client_id": "433247901279-vufha8fpbpd4poeai90kldejfdp7clmi.apps.googleusercontent.com",
          "client_type": 1,
          "android_info": {
            "package_name": "com.ibox.washapp",
            "certificate_hash": "0c2396376d5271d038f9d4baac51dff2ffc30dbd"
          }
        },
        {
          "client_id": "433247901279-6kmns5cr0e1mhog7cbesbsufkeij8btj.apps.googleusercontent.com",
          "client_type": 3
        }
      ],
      "api_key": [
        {
          "current_key": "AIzaSyCkhys2tAK21dyZAIvT6MzX0o0PAmRQDAc"
        }
      ],
      "services": {
        "appinvite_service": {
          "other_platform_oauth_client": [
            {
              "client_id": "433247901279-6kmns5cr0e1mhog7cbesbsufkeij8btj.apps.googleusercontent.com",
              "client_type": 3
            },
            {
              "client_id": "433247901279-2d579s1tigsf5qqk5ngptfllf4e979cp.apps.googleusercontent.com",
              "client_type": 2,
              "ios_info": {
                "bundle_id": "com.ibox.washapp"
              }
            }
          ]
        }
      }
    }
  ],
  "configuration_version": "1"
}